Workload:  100
 0.000763048
 0.000756117
 0.000756102
 0.000755994
 0.000756333
 0.000755946
 0.000756105
 0.000755727
 0.000755823
 0.000755934
 0.000755808
 0.000755883
 0.000755997
 0.000756255
 0.000755988
 0.000755994
 0.000756060
 0.000755613
 0.000756066
 0.000755820
 0.000756760
 0.000755982
 0.000756234
 0.000757087
 0.000756291
 0.000755712
Max:  0.000763048
Min:  0.000755613
Gap:  0.000007435
Workload:  100
 0.000762745
 0.000756853
 0.000755751
 0.000755766
 0.000756378
 0.000756027
 0.000756009
 0.000756129
 0.000755934
 0.000756664
 0.000755679
 0.000756198
 0.000755715
 0.000756078
 0.000755910
 0.000755958
 0.000756291
 0.000756375
 0.000756183
 0.000755994
 0.000756021
 0.000755841
 0.000755931
 0.000755790
 0.000757033
 0.000756459
Max:  0.000762745
Min:  0.000755679
Gap:  0.000007066
Workload:  100
 0.000762429
 0.000755967
 0.000756159
 0.000755949
 0.000756117
 0.000755640
 0.000755793
 0.000755982
 0.000755703
 0.000755682
 0.000755889
 0.000756303
 0.000755910
 0.000755850
 0.000756069
 0.000756294
 0.000755736
 0.000755712
 0.000756009
 0.000756246
 0.000755565
 0.000756087
 0.000756447
 0.000756249
 0.000756168
 0.000755928
Max:  0.000762429
Min:  0.000755565
Gap:  0.000006865
Workload:  10000
 0.075458249
 0.075452129
 0.075452312
 0.075452174
 0.075451616
 0.075451907
 0.075451835
 0.075452156
 0.075451733
 0.075451793
 0.075452709
 0.075452036
 0.075451778
 0.075452150
 0.075452375
 0.075452114
 0.075451922
 0.075451919
 0.075452036
 0.075451535
 0.075452198
 0.075452264
 0.075451754
 0.075451592
 0.075451895
 0.075452153
Max:  0.075458249
Min:  0.075451535
Gap:  0.000006715
Workload:  10000
 0.075458141
 0.075452000
 0.075451883
 0.075451727
 0.075451826
 0.075452339
 0.075451586
 0.075452069
 0.075451925
 0.075452069
 0.075452270
 0.075451784
 0.075452207
 0.075451922
 0.075451943
 0.075452057
 0.075451375
 0.075452393
 0.075451742
 0.075451844
 0.075451787
 0.075451937
 0.075451679
 0.075451886
 0.075451739
 0.075451321
Max:  0.075458141
Min:  0.075451321
Gap:  0.000006820
